{
  "images" : [
    {
      "resizing" : {
        "mode" : "9-part",
        "center" : {
          "mode" : "tile",
          "width" : 1,
          "height" : 1
        },
        "cap-insets" : {
          "bottom" : 18,
          "top" : 17,
          "right" : 18,
          "left" : 18
        }
      },
      "idiom" : "universal",
      "filename" : "btn_blue.png",
      "scale" : "1x"
    },
    {
      "resizing" : {
        "mode" : "9-part",
        "center" : {
          "mode" : "tile",
          "width" : 1,
          "height" : 1
        },
        "cap-insets" : {
          "bottom" : 35,
          "top" : 35,
          "right" : 36,
          "left" : 35
        }
      },
      "idiom" : "universal",
      "filename" : "btn_blue@2x.png",
      "scale" : "2x"
    },
    {
      "resizing" : {
        "mode" : "9-part",
        "center" : {
          "mode" : "tile",
          "width" : 1,
          "height" : 1
        },
        "cap-insets" : {
          "bottom" : 53,
          "top" : 53,
          "right" : 53,
          "left" : 53
        }
      },
      "idiom" : "universal",
      "filename" : "btn_blue@3x.png",
      "scale" : "3x"
    }
  ],
  "info" : {
    "version" : 1,
    "author" : "xcode"
  }
}